<svg width="16" height="16" viewBox="0 0 16 16" fill="none" xmlns="http://www.w3.org/2000/svg">
<path d="M14 8H2" stroke="#EDEDED" stroke-width="1.6" stroke-linecap="round" stroke-linejoin="round"/>
<path d="M10 4L14 8L10 12" stroke="#EDEDED" stroke-width="1.6" stroke-linecap="round" stroke-linejoin="round"/>
</svg>
